Creating Courses from Scratch • didactr
…
Now, let’s create our lesson. For your lesson, change How to Do Things to something more appropriate and run:

sc = check_structure(course_dir = ".", create_directories = FALSE)
stopifnot(dir.exists(sc$man_path))
out = didactr::create_lesson(
  lesson_name = "How to Do Things",
  course_dir = sc$course_dir,
  make_slide_deck = TRUE,
  slide_id = slide_id,
  open = TRUE)
out

#> Warning in create_slide_deck(slide_id = slide_id, template = template, publish =
#> publish, : Slide deck with name test_00_how_to_do_things already exists
#> # A tibble: 25 x 3
#>    name                  id                                     drive_resource  
#>  * <chr>                 <chr>                                  <list>          
#>  1 test_00_how_to_do_th… 1LSHMlom91Vwj5rUth12N8GxCg6Qvjakfx46I… <named list [34…
#>  2 test_00_how_to_do_th… 1IAc96TmjsDAQuEaWKjv_tZjbBEB8W8BPABXS… <named list [34…
#>  3 test_00_how_to_do_th… 1T2GCKo41FZa3gqIDgooD_FTT-SxZiNq5FZuc… <named list [33…
#>  4 test_00_how_to_do_th… 1IsYSp8QmghtK0VlH1KA9qjbBaTBL16IRMP61… <named list [33…
#>  5 test_00_how_to_do_th… 1SdQ8lOmYKwB7BIwdrCfgw1i41MKptahO0m0r… <named list [33…
#>  6 test_00_how_to_do_th… 146TSRXLVAMyDjRpOU3OMU76STyyaChJeCuBq… <named list [33…
#>  7 test_00_how_to_do_th… 1dYTLw1oZigbPk_xa1f8gNzr6axXzXDhYyDMU… <named list [33…
#>  8 test_00_how_to_do_th… 1iVGEeCb7CjdtBKoBJ50OKZy0vtak_us-35D6… <named list [33…
#>  9 test_00_how_to_do_th… 1iTystctIfqVIi58YAzTe7EPUMQMAP_N_gjpH… <named list [33…
#> 10 test_00_how_to_do_th… 1aPxjsMkluK0QdTFlSpdzrHejjAt_DwNrdjZW… <named list [33…
#> # … with 15 more rows
…
